{
    "version": "https://jsonfeed.org/version/1",
    "title": "Alpha新材料探索工作室 • All posts by \"介绍\" tag",
    "description": "The start place for dream",
    "home_page_url": "http://example.com",
    "items": [
        {
            "id": "http://example.com/2021/04/20/%E6%95%99%E5%B8%88%E4%BB%8B%E7%BB%8D/",
            "url": "http://example.com/2021/04/20/%E6%95%99%E5%B8%88%E4%BB%8B%E7%BB%8D/",
            "title": "课题组导师介绍",
            "date_published": "2021-04-20T11:37:04.000Z",
            "content_html": "<p><strong>韩锐</strong>，1988 年生，工学博士，** 高分子科学与工程专业 **，毕业于四川大学高分子材料工程国家重点实验室和英国布拉德福德的大学聚合物交叉科学研究中心，师从中国工程院院士 王琪 教授和英国皇家工程院院士 Phil Coates 教授，现为西华大学 副教授，西华大学 “青年学者后备人才” 和 “青年学者” 支持人选，宜宾市 “科技菁英” 计划支持人选，电子科技大学光电学院在站博士后，江苏东方电缆材料有限公司科技副总，成都鑫成鹏高分子科技股份有限公司、四川宏扬高分子科技有限公司和成都锐美特新材料科技有限公司外聘专家，四川省科技厅科技专家库评审专家。</p>\n<p><img src=\"https://mmbiz.qpic.cn/mmbiz_png/NKUskXrpVGYPiaQqR801iatjCIMGWTPiaYia7VKQdz9cleeDfk1icR4t1naLdo7Lm0Bt2xhhZe7lc72pib8Mh8pljUhQ/640?wx_fmt=png&amp;tp=webp&amp;wxfrom=5&amp;wx_lazy=1&amp;wx_co=1\" alt=\"Image\"></p>\n<p><strong>Email: <a href=\"mailto:ruihan_harry@163.com\">ruihan_harry@163.com</a></strong></p>\n<p><strong>彭必友</strong>，1979 年生，工学博士，<strong>机械制造及其自动化专业</strong>，毕业于四川大学机械工程学院，四川普什宁江机床有限公司企业博士后，美国革命性镁合金工程研究中心交流访问学者，现为西华大学副教授，材料学院院长助理，入选西华大学 “教学支持计划”，获西华大学唐立新奖教金，全国高校教师教学创新设计大赛国家一等奖。创办江苏长沐智能装备有限公司，获苏州市 “姑苏创新创业领军人才” 和昆山市 “创新创业领军人才” 项目支持，任成都瑞合科技有限公司、成都扶郎花科技有限公司高级技术顾问，成都睿智装备制造智能技术研究院受聘专家。</p>\n<p><img src=\"https://mmbiz.qpic.cn/mmbiz_png/NKUskXrpVGYPiaQqR801iatjCIMGWTPiaYiaZSrKiaQ1xgku15FTuUNDLNyqxdNiaHMy2IV6LAzI1Ju6jHr65CmcWU9g/640?wx_fmt=png&amp;tp=webp&amp;wxfrom=5&amp;wx_lazy=1&amp;wx_co=1\" alt=\"Image\"></p>\n<p><strong>Email: <a href=\"mailto:pengbiyou@126.com\">pengbiyou@126.com</a></strong></p>\n<p><strong>李光照</strong>，理学博士，1974 年生，毕业于<strong> University of Warwick（英国华威大学）高分子化学专业</strong>，其导师为英国皇家科学院院士 David M. Haddleton 教授。博士毕业后，在 **Vanderbilt University（美国范德堡大学）** 从事博士后科研工作。现为西华大学副研究员，材料学院材料系副系主任，成都鑫成鹏高分子科技股份有限公司、四川宏扬高分子科技有限公司和成都锐美特新材料科技有限公司外聘专家，四川省科技厅及四川省经济和信息化厅专家库评审专家。</p>\n<p><img src=\"https://mmbiz.qpic.cn/mmbiz_png/NKUskXrpVGYPiaQqR801iatjCIMGWTPiaYiav9O3mySA43lbj1mU7CrzT0DzELkHN4k0SEluRPbDYMFsQ7na9KQAibw/640?wx_fmt=png&amp;tp=webp&amp;wxfrom=5&amp;wx_lazy=1&amp;wx_co=1\" alt=\"Image\"></p>\n<p><strong><a href=\"mailto:Email:guangzhao.li@hotmail.com\">Email:guangzhao.li@hotmail.com</a></strong></p>\n<p>陈刚 **，工学博士，1991 年生，汉族，籍贯山西忻州。2010 年 9 月至 2014 年 6 月于四川大学高分子科学与工程学院<strong>高分子材料加工工程</strong>攻读学士学位。后被推免，硕博连读攻读四川大学高分子材料工程国家重点实验室博士学位，师从中国工程院院士王琪教授。现为西华大学 讲师。主要从事聚合物加工、形态、结构与性能，聚合物基微纳米功能复合材料的 3D 打印加工。迄今在 **Composites Science and Technology, Materials and Design, Industrial engineering and chemistry research** 等期刊上面发表论文多篇，被引用多次。</p>\n<p><img src=\"https://mmbiz.qpic.cn/mmbiz_png/NKUskXrpVGYPiaQqR801iatjCIMGWTPiaYiau0aFfDiaicyticTLWVhxs44Zicic9sK8XzEz51SRazc4ssNWDibaTS3fcT5w/640?wx_fmt=png&amp;tp=webp&amp;wxfrom=5&amp;wx_lazy=1&amp;wx_co=1\" alt=\"Image\"></p>\n<p><strong>Email: <a href=\"mailto:chengangscu@163.com\">chengangscu@163.com</a></strong></p>\n",
            "tags": [
                "介绍"
            ]
        }
    ]
}